author_timestamp,commit_hash,commit_utc_offset_hours,filename,n_additions,n_deletions,subject,author_id
1487807211,f201ebd87652cf1519792f8662bb3f862c76aa33,-8,mm/z3fold.c,7,3,mm/z3fold.c: limit first_num to the actual range of possible buddy indexes,0
1487807208,083fb8edda0487d192e8c117f625563b920cf7a4,-8,include/linux/pagemap.h,0,1,mm: fix <linux/pagemap.h> stray kernel-doc notation,1
1487807205,c87d1655c29500b459fb135258a93f8309ada9c7,-8,Documentation/ABI/obsolete/sysfs-block-zram,0,119,zram: remove obsolete sysfs attrs,2
1487807205,c87d1655c29500b459fb135258a93f8309ada9c7,-8,Documentation/ABI/testing/sysfs-block-zram,8,92,zram: remove obsolete sysfs attrs,2
1487807205,c87d1655c29500b459fb135258a93f8309ada9c7,-8,Documentation/blockdev/zram.txt,34,39,zram: remove obsolete sysfs attrs,2
1487807205,c87d1655c29500b459fb135258a93f8309ada9c7,-8,drivers/block/zram/zram_drv.c,4,96,zram: remove obsolete sysfs attrs,2
1487807202,5d63f81c9e495e1f38fa36208bdcbbe2d2e72960,-8,mm/memblock.c,25,29,mm/memblock.c: remove unnecessary log and clean up,3
1487807199,235190738aba7c5c94300c8d882842a535280e5a,-8,mm/internal.h,5,0,oom-reaper: use madvise_dontneed() logic to decide if unmap the VMA,4
1487807199,235190738aba7c5c94300c8d882842a535280e5a,-8,mm/madvise.c,3,1,oom-reaper: use madvise_dontneed() logic to decide if unmap the VMA,4
1487807199,235190738aba7c5c94300c8d882842a535280e5a,-8,mm/oom_kill.c,1,8,oom-reaper: use madvise_dontneed() logic to decide if unmap the VMA,4
1487807197,ecf1385d72f0491400a8ceca7001196ca369aa8c,-8,arch/s390/mm/gmap.c,1,1,mm: drop unused argument of zap_page_range(),4
1487807197,ecf1385d72f0491400a8ceca7001196ca369aa8c,-8,arch/x86/mm/mpx.c,1,1,mm: drop unused argument of zap_page_range(),4
1487807197,ecf1385d72f0491400a8ceca7001196ca369aa8c,-8,drivers/android/binder.c,1,1,mm: drop unused argument of zap_page_range(),4
1487807197,ecf1385d72f0491400a8ceca7001196ca369aa8c,-8,drivers/staging/android/ion/ion.c,1,2,mm: drop unused argument of zap_page_range(),4
1487807197,ecf1385d72f0491400a8ceca7001196ca369aa8c,-8,include/linux/mm.h,1,1,mm: drop unused argument of zap_page_range(),4
1487807197,ecf1385d72f0491400a8ceca7001196ca369aa8c,-8,mm/madvise.c,1,1,mm: drop unused argument of zap_page_range(),4
1487807197,ecf1385d72f0491400a8ceca7001196ca369aa8c,-8,mm/memory.c,2,3,mm: drop unused argument of zap_page_range(),4
1487807194,3e8715fdc03e8df4d26d8e436166e44e3e416d3b,-8,include/linux/mm.h,0,1,mm: drop zap_details::check_swap_entries,4
1487807194,3e8715fdc03e8df4d26d8e436166e44e3e416d3b,-8,mm/memory.c,2,2,mm: drop zap_details::check_swap_entries,4
